Vivado Labs/Lab11/Task2/Task2.sim/sim_1/behav/xsim/simulate.log
Vivado Simulator 2020.1
Time resolution is 1 ps
Time: 0 | PC: 00000000 | Instr: 00200293 | ALU_Out: 00000002 | WB: 00000002
--- Simulation Started ---
Expected Sequence: ADDI x2, ADDI x3, ADD, SUB, AND, OR, XOR
Time: 105000 | PC: 00000004 | Instr: 00300313 | ALU_Out: 00000003 | WB: 00000003
Time: 115000 | PC: 00000008 | Instr: 006283b3 | ALU_Out: 00000005 | WB: 00000005
Time: 125000 | PC: 0000000c | Instr: 40628433 | ALU_Out: ffffffff | WB: ffffffff
Time: 135000 | PC: 00000010 | Instr: 0062f4b3 | ALU_Out: 00000002 | WB: 00000002
Time: 145000 | PC: 00000014 | Instr: 0062e533 | ALU_Out: 00000003 | WB: 00000003
Time: 155000 | PC: 00000018 | Instr: 0062c5b3 | ALU_Out: 00000001 | WB: 00000001
Time: 165000 | PC: 0000001c | Instr: xxxxxxxx | ALU_Out: xxxxxxxx | WB: xxxxxxxx
Time: 175000 | PC: 00000020 | Instr: xxxxxxxx | ALU_Out: xxxxxxxx | WB: xxxxxxxx
Time: 185000 | PC: 00000024 | Instr: xxxxxxxx | ALU_Out: xxxxxxxx | WB: xxxxxxxx
Time: 195000 | PC: 00000028 | Instr: xxxxxxxx | ALU_Out: xxxxxxxx | WB: xxxxxxxx
Time: 205000 | PC: 0000002c | Instr: xxxxxxxx | ALU_Out: xxxxxxxx | WB: xxxxxxxx
Time: 215000 | PC: 00000030 | Instr: xxxxxxxx | ALU_Out: xxxxxxxx | WB: xxxxxxxx
Time: 225000 | PC: 00000034 | Instr: xxxxxxxx | ALU_Out: xxxxxxxx | WB: xxxxxxxx
Time: 235000 | PC: 00000038 | Instr: xxxxxxxx | ALU_Out: xxxxxxxx | WB: xxxxxxxx
Time: 245000 | PC: 0000003c | Instr: xxxxxxxx | ALU_Out: xxxxxxxx | WB: xxxxxxxx
Time: 255000 | PC: 00000040 | Instr: xxxxxxxx | ALU_Out: xxxxxxxx | WB: xxxxxxxx
Time: 265000 | PC: 00000044 | Instr: xxxxxxxx | ALU_Out: xxxxxxxx | WB: xxxxxxxx
Time: 275000 | PC: 00000048 | Instr: xxxxxxxx | ALU_Out: xxxxxxxx | WB: xxxxxxxx
Time: 285000 | PC: 0000004c | Instr: xxxxxxxx | ALU_Out: xxxxxxxx | WB: xxxxxxxx
Time: 295000 | PC: 00000050 | Instr: xxxxxxxx | ALU_Out: xxxxxxxx | WB: xxxxxxxx
--- Simulation Finished ---
$finish called at time : 300 ns : File "C:/Users/ghazi/CA-LAB-SPR-2026/Vivado Labs/Lab11/Task2/Task2.srcs/sources_1/new/proc_tb.v" Line 249
