Vivado Labs/Lab11/Task2/Task2.sim/sim_1/behav/xsim/simulate.log
Vivado Simulator 2020.1
Time resolution is 1 ps
WARNING: File program.mem referenced on C:/Users/gs10403/CA-LAB-SPR-2026/Vivado Labs/Lab10/Task2/Task2.srcs/sources_1/new/InstructionMemory.v at line 33 cannot be opened for reading. Please ensure that this file is available in the current working directory.
Time=0 | PC=         0 | LED=    0 | Switch=    0
Time=25000 | PC=         4 | LED=    0 | Switch=    0
Time=35000 | PC=         8 | LED=    0 | Switch=    0
Time=45000 | PC=        12 | LED=    0 | Switch=    0
Time=55000 | PC=        16 | LED=    0 | Switch=    0
Time=65000 | PC=        20 | LED=    0 | Switch=    0
Time=75000 | PC=        24 | LED=    0 | Switch=    0
Time=85000 | PC=        28 | LED=    0 | Switch=    0
Time=95000 | PC=        32 | LED=    0 | Switch=    0
Time=105000 | PC=        36 | LED=    0 | Switch=    0
Time=115000 | PC=        40 | LED=    0 | Switch=    0
Time=120000 | PC=        40 | LED=    0 | Switch=    5
Time=125000 | PC=        44 | LED=    0 | Switch=    5
Time=135000 | PC=        48 | LED=    0 | Switch=    5
Time=140000 | PC=        48 | LED=    0 | Switch=    0
Time=145000 | PC=        52 | LED=    0 | Switch=    0
Time=155000 | PC=        56 | LED=    0 | Switch=    0
Time=165000 | PC=        60 | LED=    0 | Switch=    0
Time=175000 | PC=        64 | LED=    0 | Switch=    0
Time=185000 | PC=        68 | LED=    0 | Switch=    0
Time=195000 | PC=        72 | LED=    0 | Switch=    0
Time=205000 | PC=        76 | LED=    0 | Switch=    0
Time=215000 | PC=        80 | LED=    0 | Switch=    0
Time=225000 | PC=        84 | LED=    0 | Switch=    0
Time=235000 | PC=        88 | LED=    0 | Switch=    0
Time=245000 | PC=        92 | LED=    0 | Switch=    0
Time=255000 | PC=        96 | LED=    0 | Switch=    0
Time=265000 | PC=       100 | LED=    0 | Switch=    0
Time=275000 | PC=       104 | LED=    0 | Switch=    0
Time=285000 | PC=       108 | LED=    0 | Switch=    0
Time=295000 | PC=       112 | LED=    0 | Switch=    0
Time=305000 | PC=       116 | LED=    0 | Switch=    0
Time=315000 | PC=       120 | LED=    0 | Switch=    0
Time=325000 | PC=       124 | LED=    0 | Switch=    0
Time=335000 | PC=       128 | LED=    0 | Switch=    0
Time=345000 | PC=       132 | LED=    0 | Switch=    0
Time=355000 | PC=       136 | LED=    0 | Switch=    0
Time=365000 | PC=       140 | LED=    0 | Switch=    0
Time=375000 | PC=       144 | LED=    0 | Switch=    0
Time=385000 | PC=       148 | LED=    0 | Switch=    0
Time=395000 | PC=       152 | LED=    0 | Switch=    0
Time=405000 | PC=       156 | LED=    0 | Switch=    0
Time=415000 | PC=       160 | LED=    0 | Switch=    0
Time=425000 | PC=       164 | LED=    0 | Switch=    0
Time=435000 | PC=       168 | LED=    0 | Switch=    0
Time=445000 | PC=       172 | LED=    0 | Switch=    0
Time=455000 | PC=       176 | LED=    0 | Switch=    0
Time=465000 | PC=       180 | LED=    0 | Switch=    0
Time=475000 | PC=       184 | LED=    0 | Switch=    0
Time=485000 | PC=       188 | LED=    0 | Switch=    0
Time=495000 | PC=       192 | LED=    0 | Switch=    0
Time=505000 | PC=       196 | LED=    0 | Switch=    0
Time=515000 | PC=       200 | LED=    0 | Switch=    0
Time=525000 | PC=       204 | LED=    0 | Switch=    0
Time=535000 | PC=       208 | LED=    0 | Switch=    0
Time=545000 | PC=       212 | LED=    0 | Switch=    0
Time=555000 | PC=       216 | LED=    0 | Switch=    0
Time=565000 | PC=       220 | LED=    0 | Switch=    0
Time=575000 | PC=       224 | LED=    0 | Switch=    0
Time=585000 | PC=       228 | LED=    0 | Switch=    0
Time=595000 | PC=       232 | LED=    0 | Switch=    0
Time=605000 | PC=       236 | LED=    0 | Switch=    0
Time=615000 | PC=       240 | LED=    0 | Switch=    0
Time=625000 | PC=       244 | LED=    0 | Switch=    0
Time=635000 | PC=       248 | LED=    0 | Switch=    0
Time=640000 | PC=       248 | LED=    0 | Switch=    8
Time=645000 | PC=       252 | LED=    0 | Switch=    8
Time=655000 | PC=       256 | LED=    0 | Switch=    8
Time=660000 | PC=       256 | LED=    0 | Switch=    0
Time=665000 | PC=       260 | LED=    0 | Switch=    0
Time=675000 | PC=       264 | LED=    0 | Switch=    0
Time=685000 | PC=       268 | LED=    0 | Switch=    0
Time=695000 | PC=       272 | LED=    0 | Switch=    0
Time=705000 | PC=       276 | LED=    0 | Switch=    0
Time=715000 | PC=       280 | LED=    0 | Switch=    0
Time=725000 | PC=       284 | LED=    0 | Switch=    0
Time=735000 | PC=       288 | LED=    0 | Switch=    0
Time=745000 | PC=       292 | LED=    0 | Switch=    0
Time=755000 | PC=       296 | LED=    0 | Switch=    0
Time=765000 | PC=       300 | LED=    0 | Switch=    0
Time=775000 | PC=       304 | LED=    0 | Switch=    0
Time=785000 | PC=       308 | LED=    0 | Switch=    0
Time=795000 | PC=       312 | LED=    0 | Switch=    0
Time=805000 | PC=       316 | LED=    0 | Switch=    0
Time=815000 | PC=       320 | LED=    0 | Switch=    0
Time=825000 | PC=       324 | LED=    0 | Switch=    0
Time=835000 | PC=       328 | LED=    0 | Switch=    0
Time=845000 | PC=       332 | LED=    0 | Switch=    0
Time=855000 | PC=       336 | LED=    0 | Switch=    0
Time=865000 | PC=       340 | LED=    0 | Switch=    0
Time=875000 | PC=       344 | LED=    0 | Switch=    0
Time=885000 | PC=       348 | LED=    0 | Switch=    0
Time=895000 | PC=       352 | LED=    0 | Switch=    0
Time=905000 | PC=       356 | LED=    0 | Switch=    0
Time=915000 | PC=       360 | LED=    0 | Switch=    0
Time=925000 | PC=       364 | LED=    0 | Switch=    0
Time=935000 | PC=       368 | LED=    0 | Switch=    0
Time=945000 | PC=       372 | LED=    0 | Switch=    0
Time=955000 | PC=       376 | LED=    0 | Switch=    0
Time=965000 | PC=       380 | LED=    0 | Switch=    0
Time=975000 | PC=       384 | LED=    0 | Switch=    0
Time=985000 | PC=       388 | LED=    0 | Switch=    0
Time=995000 | PC=       392 | LED=    0 | Switch=    0
