Vivado Labs/Lab11/Task2/Task2.sim/sim_1/behav/xsim/simulate.log
Vivado Simulator 2020.1
Time resolution is 1 ps
Time: 0 | PC: 00000000 | Instr: 00000513 | ALU_Out: 00000000 | WB: 00000000
Time=0 | Instr=00000513 | rs1=         0 | rs2=         0 | imm=         0 | ALUSrc=1 | ALUResult=         0
--- Simulation Started ---
Expected Sequence: ADDI x2, ADDI x3, ADD, SUB, AND, OR, XOR
Time: 55000 | PC: 00000004 | Instr: 00500093 | ALU_Out: 00000005 | WB: 00000005
Time=55000 | Instr=00500093 | rs1=         0 | rs2=         0 | imm=         5 | ALUSrc=1 | ALUResult=         5
Time: 65000 | PC: 00000008 | Instr: 00152023 | ALU_Out: 00000000 | WB: 00000000
Time=65000 | Instr=00152023 | rs1=         0 | rs2=         5 | imm=         0 | ALUSrc=1 | ALUResult=         0
Time: 75000 | PC: 0000000c | Instr: 00300093 | ALU_Out: 00000003 | WB: 00000003
Time=75000 | Instr=00300093 | rs1=         0 | rs2=         0 | imm=         3 | ALUSrc=1 | ALUResult=         3
Time: 85000 | PC: 00000010 | Instr: 00152223 | ALU_Out: 00000004 | WB: 00000004
Time=85000 | Instr=00152223 | rs1=         0 | rs2=         3 | imm=         4 | ALUSrc=1 | ALUResult=         4
Time: 95000 | PC: 00000014 | Instr: 00800093 | ALU_Out: 00000008 | WB: 00000008
Time=95000 | Instr=00800093 | rs1=         0 | rs2=         0 | imm=         8 | ALUSrc=1 | ALUResult=         8
Time: 105000 | PC: 00000018 | Instr: 00152423 | ALU_Out: 00000008 | WB: 00000008
Time=105000 | Instr=00152423 | rs1=         0 | rs2=         8 | imm=         8 | ALUSrc=1 | ALUResult=         8
Time: 115000 | PC: 0000001c | Instr: 00100093 | ALU_Out: 00000001 | WB: 00000001
Time=115000 | Instr=00100093 | rs1=         0 | rs2=         8 | imm=         1 | ALUSrc=1 | ALUResult=         1
Time=125000 | Instr=00152623 | rs1=         0 | rs2=         1 | imm=        12 | ALUSrc=1 | ALUResult=        12
Time: 125000 | PC: 00000020 | Instr: 00152623 | ALU_Out: 0000000c | WB: 0000000c
Time: 135000 | PC: 00000024 | Instr: 00400593 | ALU_Out: 00000004 | WB: 00000004
Time=135000 | Instr=00400593 | rs1=         0 | rs2=         0 | imm=         4 | ALUSrc=1 | ALUResult=         4
Time: 145000 | PC: 00000028 | Instr: 00000613 | ALU_Out: 00000000 | WB: 00000000
Time=145000 | Instr=00000613 | rs1=         0 | rs2=         0 | imm=         0 | ALUSrc=1 | ALUResult=         0
Time: 155000 | PC: 0000002c | Instr: 00200113 | ALU_Out: 00000002 | WB: 00000002
Time=155000 | Instr=00200113 | rs1=         0 | rs2=         0 | imm=         2 | ALUSrc=1 | ALUResult=         2
Time=165000 | Instr=00000693 | rs1=         0 | rs2=         0 | imm=         0 | ALUSrc=1 | ALUResult=         0
Time: 165000 | PC: 00000030 | Instr: 00000693 | ALU_Out: 00000000 | WB: 00000000
Time: 175000 | PC: 00000034 | Instr: 00269733 | ALU_Out: 00000000 | WB: 00000000
Time=175000 | Instr=00269733 | rs1=         0 | rs2=         2 | imm=         0 | ALUSrc=0 | ALUResult=         0
Time: 185000 | PC: 00000038 | Instr: 00e507b3 | ALU_Out: 00000000 | WB: 00000000
Time=185000 | Instr=00e507b3 | rs1=         0 | rs2=         0 | imm=         0 | ALUSrc=0 | ALUResult=         0
Time: 195000 | PC: 0000003c | Instr: 0007a103 | ALU_Out: 00000000 | WB: 00000005
Time=195000 | Instr=0007a103 | rs1=         0 | rs2=         0 | imm=         0 | ALUSrc=1 | ALUResult=         0
Time: 205000 | PC: 00000040 | Instr: 0047a183 | ALU_Out: 00000004 | WB: 00000003
Time=205000 | Instr=0047a183 | rs1=         0 | rs2=         0 | imm=         4 | ALUSrc=1 | ALUResult=         4
Time: 215000 | PC: 00000044 | Instr: 0021a233 | ALU_Out: 00000001 | WB: 00000001
Time=215000 | Instr=0021a233 | rs1=         3 | rs2=         5 | imm=         0 | ALUSrc=0 | ALUResult=         1
Time: 225000 | PC: 00000048 | Instr: 00020663 | ALU_Out: 00000001 | WB: 00000001
Time=225000 | Instr=00020663 | rs1=         1 | rs2=         0 | imm=        12 | ALUSrc=0 | ALUResult=         1
Time: 235000 | PC: 0000004c | Instr: 0037a023 | ALU_Out: 00000000 | WB: 00000000
Time=235000 | Instr=0037a023 | rs1=         0 | rs2=         3 | imm=         0 | ALUSrc=1 | ALUResult=         0
Time: 245000 | PC: 00000050 | Instr: 0027a223 | ALU_Out: 00000004 | WB: 00000004
Time=245000 | Instr=0027a223 | rs1=         0 | rs2=         5 | imm=         4 | ALUSrc=1 | ALUResult=         4
Time: 255000 | PC: 00000054 | Instr: 00168693 | ALU_Out: 00000001 | WB: 00000001
Time=255000 | Instr=00168693 | rs1=         0 | rs2=         1 | imm=         1 | ALUSrc=1 | ALUResult=         1
Time=265000 | Instr=fff58813 | rs1=         4 | rs2=         0 | imm=4294967295 | ALUSrc=1 | ALUResult=         3
Time: 265000 | PC: 00000058 | Instr: fff58813 | ALU_Out: 00000003 | WB: 00000003
Time: 275000 | PC: 0000005c | Instr: 0106a8b3 | ALU_Out: 00000001 | WB: 00000001
Time=275000 | Instr=0106a8b3 | rs1=         1 | rs2=         3 | imm=         0 | ALUSrc=0 | ALUResult=         1
Time: 285000 | PC: 00000060 | Instr: fc089ae3 | ALU_Out: 00000001 | WB: 00000001
Time=285000 | Instr=fc089ae3 | rs1=         1 | rs2=         0 | imm=4294967252 | ALUSrc=0 | ALUResult=         1
Time: 295000 | PC: 00000034 | Instr: 00269733 | ALU_Out: 00000020 | WB: 00000020
Time=295000 | Instr=00269733 | rs1=         1 | rs2=         5 | imm=         0 | ALUSrc=0 | ALUResult=        32
Time: 305000 | PC: 00000038 | Instr: 00e507b3 | ALU_Out: 00000020 | WB: 00000020
Time=305000 | Instr=00e507b3 | rs1=         0 | rs2=        32 | imm=         0 | ALUSrc=0 | ALUResult=        32
Time: 315000 | PC: 0000003c | Instr: 0007a103 | ALU_Out: 00000020 | WB: 00000000
Time=315000 | Instr=0007a103 | rs1=        32 | rs2=         0 | imm=         0 | ALUSrc=1 | ALUResult=        32
Time: 325000 | PC: 00000040 | Instr: 0047a183 | ALU_Out: 00000024 | WB: 00000000
Time=325000 | Instr=0047a183 | rs1=        32 | rs2=         1 | imm=         4 | ALUSrc=1 | ALUResult=        36
Time: 335000 | PC: 00000044 | Instr: 0021a233 | ALU_Out: 00000000 | WB: 00000000
Time=335000 | Instr=0021a233 | rs1=         0 | rs2=         0 | imm=         0 | ALUSrc=0 | ALUResult=         0
Time: 345000 | PC: 00000048 | Instr: 00020663 | ALU_Out: 00000000 | WB: 00000000
Time=345000 | Instr=00020663 | rs1=         0 | rs2=         0 | imm=        12 | ALUSrc=0 | ALUResult=         0
Time: 355000 | PC: 00000054 | Instr: 00168693 | ALU_Out: 00000002 | WB: 00000002
Time=355000 | Instr=00168693 | rs1=         1 | rs2=         1 | imm=         1 | ALUSrc=1 | ALUResult=         2
Time=365000 | Instr=fff58813 | rs1=         4 | rs2=         0 | imm=4294967295 | ALUSrc=1 | ALUResult=         3
Time: 365000 | PC: 00000058 | Instr: fff58813 | ALU_Out: 00000003 | WB: 00000003
Time: 375000 | PC: 0000005c | Instr: 0106a8b3 | ALU_Out: 00000001 | WB: 00000001
Time=375000 | Instr=0106a8b3 | rs1=         2 | rs2=         3 | imm=         0 | ALUSrc=0 | ALUResult=         1
Time: 385000 | PC: 00000060 | Instr: fc089ae3 | ALU_Out: 00000001 | WB: 00000001
Time=385000 | Instr=fc089ae3 | rs1=         1 | rs2=         0 | imm=4294967252 | ALUSrc=0 | ALUResult=         1
Time: 395000 | PC: 00000034 | Instr: 00269733 | ALU_Out: 00000002 | WB: 00000002
Time=395000 | Instr=00269733 | rs1=         2 | rs2=         0 | imm=         0 | ALUSrc=0 | ALUResult=         2
Time: 405000 | PC: 00000038 | Instr: 00e507b3 | ALU_Out: 00000002 | WB: 00000002
Time=405000 | Instr=00e507b3 | rs1=         0 | rs2=         2 | imm=         0 | ALUSrc=0 | ALUResult=         2
Time: 415000 | PC: 0000003c | Instr: 0007a103 | ALU_Out: 00000002 | WB: 00000003
Time=415000 | Instr=0007a103 | rs1=         2 | rs2=         0 | imm=         0 | ALUSrc=1 | ALUResult=         2
Time: 425000 | PC: 00000040 | Instr: 0047a183 | ALU_Out: 00000006 | WB: 00000005
Time=425000 | Instr=0047a183 | rs1=         2 | rs2=         0 | imm=         4 | ALUSrc=1 | ALUResult=         6
Time: 435000 | PC: 00000044 | Instr: 0021a233 | ALU_Out: 00000000 | WB: 00000000
Time=435000 | Instr=0021a233 | rs1=         5 | rs2=         3 | imm=         0 | ALUSrc=0 | ALUResult=         0
Time: 445000 | PC: 00000048 | Instr: 00020663 | ALU_Out: 00000000 | WB: 00000000
Time=445000 | Instr=00020663 | rs1=         0 | rs2=         0 | imm=        12 | ALUSrc=0 | ALUResult=         0
Time: 455000 | PC: 00000054 | Instr: 00168693 | ALU_Out: 00000003 | WB: 00000003
Time=455000 | Instr=00168693 | rs1=         2 | rs2=         1 | imm=         1 | ALUSrc=1 | ALUResult=         3
Time=465000 | Instr=fff58813 | rs1=         4 | rs2=         0 | imm=4294967295 | ALUSrc=1 | ALUResult=         3
Time: 465000 | PC: 00000058 | Instr: fff58813 | ALU_Out: 00000003 | WB: 00000003
Time: 475000 | PC: 0000005c | Instr: 0106a8b3 | ALU_Out: 00000000 | WB: 00000000
Time=475000 | Instr=0106a8b3 | rs1=         3 | rs2=         3 | imm=         0 | ALUSrc=0 | ALUResult=         0
Time: 485000 | PC: 00000060 | Instr: fc089ae3 | ALU_Out: 00000000 | WB: 00000000
Time=485000 | Instr=fc089ae3 | rs1=         0 | rs2=         0 | imm=4294967252 | ALUSrc=0 | ALUResult=         0
Time: 495000 | PC: 00000064 | Instr: 00160613 | ALU_Out: 00000001 | WB: 00000001
Time=495000 | Instr=00160613 | rs1=         0 | rs2=         1 | imm=         1 | ALUSrc=1 | ALUResult=         1
Time=505000 | Instr=00b62933 | rs1=         1 | rs2=         4 | imm=         0 | ALUSrc=0 | ALUResult=         1
Time: 505000 | PC: 00000068 | Instr: 00b62933 | ALU_Out: 00000001 | WB: 00000001
Time: 515000 | PC: 0000006c | Instr: fc0912e3 | ALU_Out: 00000001 | WB: 00000001
Time=515000 | Instr=fc0912e3 | rs1=         1 | rs2=         0 | imm=4294967236 | ALUSrc=0 | ALUResult=         1
Time: 525000 | PC: 00000030 | Instr: 00000693 | ALU_Out: 00000000 | WB: 00000000
Time=525000 | Instr=00000693 | rs1=         0 | rs2=         0 | imm=         0 | ALUSrc=1 | ALUResult=         0
Time: 535000 | PC: 00000034 | Instr: 00269733 | ALU_Out: 00000000 | WB: 00000000
Time=535000 | Instr=00269733 | rs1=         0 | rs2=         3 | imm=         0 | ALUSrc=0 | ALUResult=         0
Time: 545000 | PC: 00000038 | Instr: 00e507b3 | ALU_Out: 00000000 | WB: 00000000
Time=545000 | Instr=00e507b3 | rs1=         0 | rs2=         0 | imm=         0 | ALUSrc=0 | ALUResult=         0
Time: 555000 | PC: 0000003c | Instr: 0007a103 | ALU_Out: 00000000 | WB: 00000003
Time=555000 | Instr=0007a103 | rs1=         0 | rs2=         0 | imm=         0 | ALUSrc=1 | ALUResult=         0
Time: 565000 | PC: 00000040 | Instr: 0047a183 | ALU_Out: 00000004 | WB: 00000005
Time=565000 | Instr=0047a183 | rs1=         0 | rs2=         0 | imm=         4 | ALUSrc=1 | ALUResult=         4
Time: 575000 | PC: 00000044 | Instr: 0021a233 | ALU_Out: 00000000 | WB: 00000000
Time=575000 | Instr=0021a233 | rs1=         5 | rs2=         3 | imm=         0 | ALUSrc=0 | ALUResult=         0
Time: 585000 | PC: 00000048 | Instr: 00020663 | ALU_Out: 00000000 | WB: 00000000
Time=585000 | Instr=00020663 | rs1=         0 | rs2=         0 | imm=        12 | ALUSrc=0 | ALUResult=         0
Time: 595000 | PC: 00000054 | Instr: 00168693 | ALU_Out: 00000001 | WB: 00000001
Time=595000 | Instr=00168693 | rs1=         0 | rs2=         1 | imm=         1 | ALUSrc=1 | ALUResult=         1
Time=605000 | Instr=fff58813 | rs1=         4 | rs2=         0 | imm=4294967295 | ALUSrc=1 | ALUResult=         3
Time: 605000 | PC: 00000058 | Instr: fff58813 | ALU_Out: 00000003 | WB: 00000003
Time: 615000 | PC: 0000005c | Instr: 0106a8b3 | ALU_Out: 00000001 | WB: 00000001
Time=615000 | Instr=0106a8b3 | rs1=         1 | rs2=         3 | imm=         0 | ALUSrc=0 | ALUResult=         1
Time: 625000 | PC: 00000060 | Instr: fc089ae3 | ALU_Out: 00000001 | WB: 00000001
Time=625000 | Instr=fc089ae3 | rs1=         1 | rs2=         0 | imm=4294967252 | ALUSrc=0 | ALUResult=         1
Time: 635000 | PC: 00000034 | Instr: 00269733 | ALU_Out: 00000008 | WB: 00000008
Time=635000 | Instr=00269733 | rs1=         1 | rs2=         3 | imm=         0 | ALUSrc=0 | ALUResult=         8
Time: 645000 | PC: 00000038 | Instr: 00e507b3 | ALU_Out: 00000008 | WB: 00000008
Time=645000 | Instr=00e507b3 | rs1=         0 | rs2=         8 | imm=         0 | ALUSrc=0 | ALUResult=         8
Time: 655000 | PC: 0000003c | Instr: 0007a103 | ALU_Out: 00000008 | WB: 00000008
Time=655000 | Instr=0007a103 | rs1=         8 | rs2=         0 | imm=         0 | ALUSrc=1 | ALUResult=         8
Time: 665000 | PC: 00000040 | Instr: 0047a183 | ALU_Out: 0000000c | WB: 00000001
Time=665000 | Instr=0047a183 | rs1=         8 | rs2=         0 | imm=         4 | ALUSrc=1 | ALUResult=        12
Time: 675000 | PC: 00000044 | Instr: 0021a233 | ALU_Out: 00000001 | WB: 00000001
Time=675000 | Instr=0021a233 | rs1=         1 | rs2=         8 | imm=         0 | ALUSrc=0 | ALUResult=         1
Time: 685000 | PC: 00000048 | Instr: 00020663 | ALU_Out: 00000001 | WB: 00000001
Time=685000 | Instr=00020663 | rs1=         1 | rs2=         0 | imm=        12 | ALUSrc=0 | ALUResult=         1
Time: 695000 | PC: 0000004c | Instr: 0037a023 | ALU_Out: 00000008 | WB: 00000008
Time=695000 | Instr=0037a023 | rs1=         8 | rs2=         1 | imm=         0 | ALUSrc=1 | ALUResult=         8
Time: 705000 | PC: 00000050 | Instr: 0027a223 | ALU_Out: 0000000c | WB: 0000000c
Time=705000 | Instr=0027a223 | rs1=         8 | rs2=         8 | imm=         4 | ALUSrc=1 | ALUResult=        12
Time: 715000 | PC: 00000054 | Instr: 00168693 | ALU_Out: 00000002 | WB: 00000002
Time=715000 | Instr=00168693 | rs1=         1 | rs2=         1 | imm=         1 | ALUSrc=1 | ALUResult=         2
Time=725000 | Instr=fff58813 | rs1=         4 | rs2=         0 | imm=4294967295 | ALUSrc=1 | ALUResult=         3
Time: 725000 | PC: 00000058 | Instr: fff58813 | ALU_Out: 00000003 | WB: 00000003
Time: 735000 | PC: 0000005c | Instr: 0106a8b3 | ALU_Out: 00000001 | WB: 00000001
Time=735000 | Instr=0106a8b3 | rs1=         2 | rs2=         3 | imm=         0 | ALUSrc=0 | ALUResult=         1
Time: 745000 | PC: 00000060 | Instr: fc089ae3 | ALU_Out: 00000001 | WB: 00000001
Time=745000 | Instr=fc089ae3 | rs1=         1 | rs2=         0 | imm=4294967252 | ALUSrc=0 | ALUResult=         1
Time: 755000 | PC: 00000034 | Instr: 00269733 | ALU_Out: 00000200 | WB: 00000200
Time=755000 | Instr=00269733 | rs1=         2 | rs2=         8 | imm=         0 | ALUSrc=0 | ALUResult=       512
Time: 765000 | PC: 00000038 | Instr: 00e507b3 | ALU_Out: 00000200 | WB: 00000200
Time=765000 | Instr=00e507b3 | rs1=         0 | rs2=       512 | imm=         0 | ALUSrc=0 | ALUResult=       512
Time: 775000 | PC: 0000003c | Instr: 0007a103 | ALU_Out: 00000200 | WB: 00000000
Time=775000 | Instr=0007a103 | rs1=       512 | rs2=         0 | imm=         0 | ALUSrc=1 | ALUResult=       512
Time: 785000 | PC: 00000040 | Instr: 0047a183 | ALU_Out: 00000204 | WB: 00000000
Time=785000 | Instr=0047a183 | rs1=       512 | rs2=         1 | imm=         4 | ALUSrc=1 | ALUResult=       516
Time: 795000 | PC: 00000044 | Instr: 0021a233 | ALU_Out: 00000000 | WB: 00000000
Time=795000 | Instr=0021a233 | rs1=         0 | rs2=         0 | imm=         0 | ALUSrc=0 | ALUResult=         0
Time: 805000 | PC: 00000048 | Instr: 00020663 | ALU_Out: 00000000 | WB: 00000000
Time=805000 | Instr=00020663 | rs1=         0 | rs2=         0 | imm=        12 | ALUSrc=0 | ALUResult=         0
Time: 815000 | PC: 00000054 | Instr: 00168693 | ALU_Out: 00000003 | WB: 00000003
Time=815000 | Instr=00168693 | rs1=         2 | rs2=         1 | imm=         1 | ALUSrc=1 | ALUResult=         3
Time=825000 | Instr=fff58813 | rs1=         4 | rs2=         0 | imm=4294967295 | ALUSrc=1 | ALUResult=         3
Time: 825000 | PC: 00000058 | Instr: fff58813 | ALU_Out: 00000003 | WB: 00000003
Time: 835000 | PC: 0000005c | Instr: 0106a8b3 | ALU_Out: 00000000 | WB: 00000000
Time=835000 | Instr=0106a8b3 | rs1=         3 | rs2=         3 | imm=         0 | ALUSrc=0 | ALUResult=         0
Time: 845000 | PC: 00000060 | Instr: fc089ae3 | ALU_Out: 00000000 | WB: 00000000
Time=845000 | Instr=fc089ae3 | rs1=         0 | rs2=         0 | imm=4294967252 | ALUSrc=0 | ALUResult=         0
Time: 855000 | PC: 00000064 | Instr: 00160613 | ALU_Out: 00000002 | WB: 00000002
Time=855000 | Instr=00160613 | rs1=         1 | rs2=         1 | imm=         1 | ALUSrc=1 | ALUResult=         2
Time=865000 | Instr=00b62933 | rs1=         2 | rs2=         4 | imm=         0 | ALUSrc=0 | ALUResult=         1
Time: 865000 | PC: 00000068 | Instr: 00b62933 | ALU_Out: 00000001 | WB: 00000001
Time: 875000 | PC: 0000006c | Instr: fc0912e3 | ALU_Out: 00000001 | WB: 00000001
Time=875000 | Instr=fc0912e3 | rs1=         1 | rs2=         0 | imm=4294967236 | ALUSrc=0 | ALUResult=         1
Time: 885000 | PC: 00000030 | Instr: 00000693 | ALU_Out: 00000000 | WB: 00000000
Time=885000 | Instr=00000693 | rs1=         0 | rs2=         0 | imm=         0 | ALUSrc=1 | ALUResult=         0
Time: 895000 | PC: 00000034 | Instr: 00269733 | ALU_Out: 00000000 | WB: 00000000
Time=895000 | Instr=00269733 | rs1=         0 | rs2=         0 | imm=         0 | ALUSrc=0 | ALUResult=         0
Time: 905000 | PC: 00000038 | Instr: 00e507b3 | ALU_Out: 00000000 | WB: 00000000
Time=905000 | Instr=00e507b3 | rs1=         0 | rs2=         0 | imm=         0 | ALUSrc=0 | ALUResult=         0
Time: 915000 | PC: 0000003c | Instr: 0007a103 | ALU_Out: 00000000 | WB: 00000003
Time=915000 | Instr=0007a103 | rs1=         0 | rs2=         0 | imm=         0 | ALUSrc=1 | ALUResult=         0
Time: 925000 | PC: 00000040 | Instr: 0047a183 | ALU_Out: 00000004 | WB: 00000005
Time=925000 | Instr=0047a183 | rs1=         0 | rs2=         0 | imm=         4 | ALUSrc=1 | ALUResult=         4
Time: 935000 | PC: 00000044 | Instr: 0021a233 | ALU_Out: 00000000 | WB: 00000000
Time=935000 | Instr=0021a233 | rs1=         5 | rs2=         3 | imm=         0 | ALUSrc=0 | ALUResult=         0
Time: 945000 | PC: 00000048 | Instr: 00020663 | ALU_Out: 00000000 | WB: 00000000
Time=945000 | Instr=00020663 | rs1=         0 | rs2=         0 | imm=        12 | ALUSrc=0 | ALUResult=         0
Time: 955000 | PC: 00000054 | Instr: 00168693 | ALU_Out: 00000001 | WB: 00000001
Time=955000 | Instr=00168693 | rs1=         0 | rs2=         1 | imm=         1 | ALUSrc=1 | ALUResult=         1
Time=965000 | Instr=fff58813 | rs1=         4 | rs2=         0 | imm=4294967295 | ALUSrc=1 | ALUResult=         3
Time: 965000 | PC: 00000058 | Instr: fff58813 | ALU_Out: 00000003 | WB: 00000003
Time: 975000 | PC: 0000005c | Instr: 0106a8b3 | ALU_Out: 00000001 | WB: 00000001
Time=975000 | Instr=0106a8b3 | rs1=         1 | rs2=         3 | imm=         0 | ALUSrc=0 | ALUResult=         1
Time: 985000 | PC: 00000060 | Instr: fc089ae3 | ALU_Out: 00000001 | WB: 00000001
Time=985000 | Instr=fc089ae3 | rs1=         1 | rs2=         0 | imm=4294967252 | ALUSrc=0 | ALUResult=         1
Time: 995000 | PC: 00000034 | Instr: 00269733 | ALU_Out: 00000008 | WB: 00000008
Time=995000 | Instr=00269733 | rs1=         1 | rs2=         3 | imm=         0 | ALUSrc=0 | ALUResult=         8
Time: 1005000 | PC: 00000038 | Instr: 00e507b3 | ALU_Out: 00000008 | WB: 00000008
Time=1005000 | Instr=00e507b3 | rs1=         0 | rs2=         8 | imm=         0 | ALUSrc=0 | ALUResult=         8
Time: 1015000 | PC: 0000003c | Instr: 0007a103 | ALU_Out: 00000008 | WB: 00000001
Time=1015000 | Instr=0007a103 | rs1=         8 | rs2=         0 | imm=         0 | ALUSrc=1 | ALUResult=         8
Time: 1025000 | PC: 00000040 | Instr: 0047a183 | ALU_Out: 0000000c | WB: 00000008
Time=1025000 | Instr=0047a183 | rs1=         8 | rs2=         0 | imm=         4 | ALUSrc=1 | ALUResult=        12
Time: 1035000 | PC: 00000044 | Instr: 0021a233 | ALU_Out: 00000000 | WB: 00000000
Time=1035000 | Instr=0021a233 | rs1=         8 | rs2=         1 | imm=         0 | ALUSrc=0 | ALUResult=         0
Time: 1045000 | PC: 00000048 | Instr: 00020663 | ALU_Out: 00000000 | WB: 00000000
Time=1045000 | Instr=00020663 | rs1=         0 | rs2=         0 | imm=        12 | ALUSrc=0 | ALUResult=         0
Time: 1055000 | PC: 00000054 | Instr: 00168693 | ALU_Out: 00000002 | WB: 00000002
Time=1055000 | Instr=00168693 | rs1=         1 | rs2=         1 | imm=         1 | ALUSrc=1 | ALUResult=         2
Time=1065000 | Instr=fff58813 | rs1=         4 | rs2=         0 | imm=4294967295 | ALUSrc=1 | ALUResult=         3
Time: 1065000 | PC: 00000058 | Instr: fff58813 | ALU_Out: 00000003 | WB: 00000003
Time: 1075000 | PC: 0000005c | Instr: 0106a8b3 | ALU_Out: 00000001 | WB: 00000001
Time=1075000 | Instr=0106a8b3 | rs1=         2 | rs2=         3 | imm=         0 | ALUSrc=0 | ALUResult=         1
Time: 1085000 | PC: 00000060 | Instr: fc089ae3 | ALU_Out: 00000001 | WB: 00000001
Time=1085000 | Instr=fc089ae3 | rs1=         1 | rs2=         0 | imm=4294967252 | ALUSrc=0 | ALUResult=         1
Time: 1095000 | PC: 00000034 | Instr: 00269733 | ALU_Out: 00000004 | WB: 00000004
Time=1095000 | Instr=00269733 | rs1=         2 | rs2=         1 | imm=         0 | ALUSrc=0 | ALUResult=         4
Time: 1105000 | PC: 00000038 | Instr: 00e507b3 | ALU_Out: 00000004 | WB: 00000004
Time=1105000 | Instr=00e507b3 | rs1=         0 | rs2=         4 | imm=         0 | ALUSrc=0 | ALUResult=         4
Time: 1115000 | PC: 0000003c | Instr: 0007a103 | ALU_Out: 00000004 | WB: 00000005
Time=1115000 | Instr=0007a103 | rs1=         4 | rs2=         0 | imm=         0 | ALUSrc=1 | ALUResult=         4
Time: 1125000 | PC: 00000040 | Instr: 0047a183 | ALU_Out: 00000008 | WB: 00000001
Time=1125000 | Instr=0047a183 | rs1=         4 | rs2=         0 | imm=         4 | ALUSrc=1 | ALUResult=         8
Time: 1135000 | PC: 00000044 | Instr: 0021a233 | ALU_Out: 00000001 | WB: 00000001
Time=1135000 | Instr=0021a233 | rs1=         1 | rs2=         5 | imm=         0 | ALUSrc=0 | ALUResult=         1
Time: 1145000 | PC: 00000048 | Instr: 00020663 | ALU_Out: 00000001 | WB: 00000001
Time=1145000 | Instr=00020663 | rs1=         1 | rs2=         0 | imm=        12 | ALUSrc=0 | ALUResult=         1
Time: 1155000 | PC: 0000004c | Instr: 0037a023 | ALU_Out: 00000004 | WB: 00000004
Time=1155000 | Instr=0037a023 | rs1=         4 | rs2=         1 | imm=         0 | ALUSrc=1 | ALUResult=         4
Time: 1165000 | PC: 00000050 | Instr: 0027a223 | ALU_Out: 00000008 | WB: 00000008
Time=1165000 | Instr=0027a223 | rs1=         4 | rs2=         5 | imm=         4 | ALUSrc=1 | ALUResult=         8
Time: 1175000 | PC: 00000054 | Instr: 00168693 | ALU_Out: 00000003 | WB: 00000003
Time=1175000 | Instr=00168693 | rs1=         2 | rs2=         1 | imm=         1 | ALUSrc=1 | ALUResult=         3
Time=1185000 | Instr=fff58813 | rs1=         4 | rs2=         0 | imm=4294967295 | ALUSrc=1 | ALUResult=         3
Time: 1185000 | PC: 00000058 | Instr: fff58813 | ALU_Out: 00000003 | WB: 00000003
Time: 1195000 | PC: 0000005c | Instr: 0106a8b3 | ALU_Out: 00000000 | WB: 00000000
Time=1195000 | Instr=0106a8b3 | rs1=         3 | rs2=         3 | imm=         0 | ALUSrc=0 | ALUResult=         0
Time: 1205000 | PC: 00000060 | Instr: fc089ae3 | ALU_Out: 00000000 | WB: 00000000
Time=1205000 | Instr=fc089ae3 | rs1=         0 | rs2=         0 | imm=4294967252 | ALUSrc=0 | ALUResult=         0
Time: 1215000 | PC: 00000064 | Instr: 00160613 | ALU_Out: 00000003 | WB: 00000003
Time=1215000 | Instr=00160613 | rs1=         2 | rs2=         1 | imm=         1 | ALUSrc=1 | ALUResult=         3
Time=1225000 | Instr=00b62933 | rs1=         3 | rs2=         4 | imm=         0 | ALUSrc=0 | ALUResult=         1
Time: 1225000 | PC: 00000068 | Instr: 00b62933 | ALU_Out: 00000001 | WB: 00000001
Time: 1235000 | PC: 0000006c | Instr: fc0912e3 | ALU_Out: 00000001 | WB: 00000001
Time=1235000 | Instr=fc0912e3 | rs1=         1 | rs2=         0 | imm=4294967236 | ALUSrc=0 | ALUResult=         1
Time: 1245000 | PC: 00000030 | Instr: 00000693 | ALU_Out: 00000000 | WB: 00000000
Time=1245000 | Instr=00000693 | rs1=         0 | rs2=         0 | imm=         0 | ALUSrc=1 | ALUResult=         0
Time: 1255000 | PC: 00000034 | Instr: 00269733 | ALU_Out: 00000000 | WB: 00000000
Time=1255000 | Instr=00269733 | rs1=         0 | rs2=         5 | imm=         0 | ALUSrc=0 | ALUResult=         0
Time: 1265000 | PC: 00000038 | Instr: 00e507b3 | ALU_Out: 00000000 | WB: 00000000
Time=1265000 | Instr=00e507b3 | rs1=         0 | rs2=         0 | imm=         0 | ALUSrc=0 | ALUResult=         0
Time: 1275000 | PC: 0000003c | Instr: 0007a103 | ALU_Out: 00000000 | WB: 00000003
Time=1275000 | Instr=0007a103 | rs1=         0 | rs2=         0 | imm=         0 | ALUSrc=1 | ALUResult=         0
Time: 1285000 | PC: 00000040 | Instr: 0047a183 | ALU_Out: 00000004 | WB: 00000001
Time=1285000 | Instr=0047a183 | rs1=         0 | rs2=         1 | imm=         4 | ALUSrc=1 | ALUResult=         4
Time: 1295000 | PC: 00000044 | Instr: 0021a233 | ALU_Out: 00000001 | WB: 00000001
Time=1295000 | Instr=0021a233 | rs1=         1 | rs2=         3 | imm=         0 | ALUSrc=0 | ALUResult=         1
Time: 1305000 | PC: 00000048 | Instr: 00020663 | ALU_Out: 00000001 | WB: 00000001
Time=1305000 | Instr=00020663 | rs1=         1 | rs2=         0 | imm=        12 | ALUSrc=0 | ALUResult=         1
Time: 1315000 | PC: 0000004c | Instr: 0037a023 | ALU_Out: 00000000 | WB: 00000000
Time=1315000 | Instr=0037a023 | rs1=         0 | rs2=         1 | imm=         0 | ALUSrc=1 | ALUResult=         0
Time: 1325000 | PC: 00000050 | Instr: 0027a223 | ALU_Out: 00000004 | WB: 00000004
Time=1325000 | Instr=0027a223 | rs1=         0 | rs2=         3 | imm=         4 | ALUSrc=1 | ALUResult=         4
Time: 1335000 | PC: 00000054 | Instr: 00168693 | ALU_Out: 00000001 | WB: 00000001
Time=1335000 | Instr=00168693 | rs1=         0 | rs2=         1 | imm=         1 | ALUSrc=1 | ALUResult=         1
Time=1345000 | Instr=fff58813 | rs1=         4 | rs2=         0 | imm=4294967295 | ALUSrc=1 | ALUResult=         3
Time: 1345000 | PC: 00000058 | Instr: fff58813 | ALU_Out: 00000003 | WB: 00000003
Time: 1355000 | PC: 0000005c | Instr: 0106a8b3 | ALU_Out: 00000001 | WB: 00000001
Time=1355000 | Instr=0106a8b3 | rs1=         1 | rs2=         3 | imm=         0 | ALUSrc=0 | ALUResult=         1
Time: 1365000 | PC: 00000060 | Instr: fc089ae3 | ALU_Out: 00000001 | WB: 00000001
Time=1365000 | Instr=fc089ae3 | rs1=         1 | rs2=         0 | imm=4294967252 | ALUSrc=0 | ALUResult=         1
Time: 1375000 | PC: 00000034 | Instr: 00269733 | ALU_Out: 00000008 | WB: 00000008
Time=1375000 | Instr=00269733 | rs1=         1 | rs2=         3 | imm=         0 | ALUSrc=0 | ALUResult=         8
Time: 1385000 | PC: 00000038 | Instr: 00e507b3 | ALU_Out: 00000008 | WB: 00000008
Time=1385000 | Instr=00e507b3 | rs1=         0 | rs2=         8 | imm=         0 | ALUSrc=0 | ALUResult=         8
Time: 1395000 | PC: 0000003c | Instr: 0007a103 | ALU_Out: 00000008 | WB: 00000005
Time=1395000 | Instr=0007a103 | rs1=         8 | rs2=         0 | imm=         0 | ALUSrc=1 | ALUResult=         8
Time: 1405000 | PC: 00000040 | Instr: 0047a183 | ALU_Out: 0000000c | WB: 00000008
